%YAML 1.1
%TAG !u! tag:unity3d.com,2011:
--- !u!114 &-2189253673695129420
MonoBehaviour:
  m_ObjectHideFlags: 3
  m_CorrespondingSourceObject: {fileID: 0}
  m_PrefabInstance: {fileID: 0}
  m_PrefabAsset: {fileID: 0}
  m_GameObject: {fileID: 0}
  m_Enabled: 1
  m_EditorHideFlags: 0
  m_Script: {fileID: 11500000, guid: c1cb7e9e120078f43bce4f0b1be547a7, type: 3}
  m_Name: AmbientOcclusion
  m_EditorClassIdentifier: 
  active: 1
  enabled:
    overrideState: 1
    value: 1
  mode:
    overrideState: 1
    value: 1
  intensity:
    overrideState: 1
    value: 0.62
  color:
    overrideState: 1
    value: {r: 0, g: 0, b: 0, a: 1}
  ambientOnly:
    overrideState: 0
    value: 1
  noiseFilterTolerance:
    overrideState: 0
    value: 0
  blurTolerance:
    overrideState: 0
    value: -4.6
  upsampleTolerance:
    overrideState: 0
    value: -12
  thicknessModifier:
    overrideState: 1
    value: 3.16
  directLightingStrength:
    overrideState: 0
    value: 0
  radius:
    overrideState: 0
    value: 0.25
  quality:
    overrideState: 0
    value: 2
--- !u!114 &11400000
MonoBehaviour:
  m_ObjectHideFlags: 0
  m_CorrespondingSourceObject: {fileID: 0}
  m_PrefabInstance: {fileID: 0}
  m_PrefabAsset: {fileID: 0}
  m_GameObject: {fileID: 0}
  m_Enabled: 1
  m_EditorHideFlags: 0
  m_Script: {fileID: 11500000, guid: 8e6292b2c06870d4495f009f912b9600, type: 3}
  m_Name: PostProcessing Profile
  m_EditorClassIdentifier: 
  settings:
  - {fileID: -2189253673695129420}
  - {fileID: 4838630425835692358}
  - {fileID: 5220423461419935791}
--- !u!114 &4838630425835692358
MonoBehaviour:
  m_ObjectHideFlags: 3
  m_CorrespondingSourceObject: {fileID: 0}
  m_PrefabInstance: {fileID: 0}
  m_PrefabAsset: {fileID: 0}
  m_GameObject: {fileID: 0}
  m_Enabled: 1
  m_EditorHideFlags: 0
  m_Script: {fileID: 11500000, guid: 556797029e73b2347956b6579e77e05b, type: 3}
  m_Name: DepthOfField
  m_EditorClassIdentifier: 
  active: 1
  enabled:
    overrideState: 1
    value: 1
  focusDistance:
    overrideState: 1
    value: 4.5
  aperture:
    overrideState: 0
    value: 5.6
  focalLength:
    overrideState: 0
    value: 50
  kernelSize:
    overrideState: 0
    value: 1
--- !u!114 &5220423461419935791
MonoBehaviour:
  m_ObjectHideFlags: 3
  m_CorrespondingSourceObject: {fileID: 0}
  m_PrefabInstance: {fileID: 0}
  m_PrefabAsset: {fileID: 0}
  m_GameObject: {fileID: 0}
  m_Enabled: 1
  m_EditorHideFlags: 0
  m_Script: {fileID: 11500000, guid: 40b924e2dad56384a8df2a1e111bb675, type: 3}
  m_Name: Vignette
  m_EditorClassIdentifier: 
  active: 1
  enabled:
    overrideState: 1
    value: 1
  mode:
    overrideState: 1
    value: 0
  color:
    overrideState: 1
    value: {r: 0, g: 0.22021572, b: 0.3584906, a: 1}
  center:
    overrideState: 0
    value: {x: 0.5, y: 0.5}
  intensity:
    overrideState: 1
    value: 0.615
  smoothness:
    overrideState: 1
    value: 0.327
  roundness:
    overrideState: 1
    value: 0.397
  rounded:
    overrideState: 0
    value: 0
  mask:
    overrideState: 0
    value: {fileID: 0}
    defaultState: 1
  opacity:
    overrideState: 0
    value: 1
